EESchema Schematic File Version 2
LIBS:power
LIBS:device
LIBS:transistors
LIBS:conn
LIBS:linear
LIBS:regul
LIBS:74xx
LIBS:cmos4000
LIBS:adc-dac
LIBS:memory
LIBS:xilinx
LIBS:microcontrollers
LIBS:dsp
LIBS:microchip
LIBS:analog_switches
LIBS:motorola
LIBS:texas
LIBS:intel
LIBS:audio
LIBS:interface
LIBS:digital-audio
LIBS:philips
LIBS:display
LIBS:cypress
LIBS:siliconi
LIBS:opto
LIBS:atmel
LIBS:contrib
LIBS:valves
EELAYER 25 0
EELAYER END
$Descr A4 11693 8268
encoding utf-8
Sheet 1 1
Title "Simple MCP2221 interface"
Date ""
Rev ""
Comp ""
Comment1 ""
Comment2 ""
Comment3 ""
Comment4 ""
$EndDescr
$Comp
L USB_A P?
U 1 1 5C25153A
P 1100 1100
F 0 "P?" H 1300 900 50  0000 C CNN
F 1 "USB_A" H 1050 1300 50  0000 C CNN
F 2 "" V 1050 1000 50  0000 C CNN
F 3 "" V 1050 1000 50  0000 C CNN
	1    1100 1100
	1    0    0    -1  
$EndComp
$Comp
L DIL14 P?
U 1 1 5C2515FF
P 2200 1850
F 0 "P?" H 2200 2250 50  0000 C CNN
F 1 "MCP2221" V 2200 1850 50  0000 C CNN
F 2 "" H 2200 1850 50  0000 C CNN
F 3 "" H 2200 1850 50  0000 C CNN
	1    2200 1850
	0    -1   -1   0   
$EndComp
$Comp
L BC547 Q?
U 1 1 5C2516BA
P 3050 1500
F 0 "Q?" H 3250 1575 50  0000 L CNN
F 1 "BC547" H 3250 1500 50  0000 L CNN
F 2 "TO-92" H 3250 1425 50  0000 L CIN
F 3 "" H 3050 1500 50  0000 L CNN
	1    3050 1500
	0    1    -1   0   
$EndComp
$Comp
L C C?
U 1 1 5C2519CD
P 1500 1750
F 0 "C?" H 1525 1850 50  0000 L CNN
F 1 "470nF" H 1525 1650 50  0000 L CNN
F 2 "" H 1538 1600 50  0000 C CNN
F 3 "" H 1500 1750 50  0000 C CNN
	1    1500 1750
	1    0    0    -1  
$EndComp
$Comp
L C C?
U 1 1 5C251A5E
P 2050 1000
F 0 "C?" H 2075 1100 50  0000 L CNN
F 1 "470nF" H 2075 900 50  0000 L CNN
F 2 "" H 2088 850 50  0000 C CNN
F 3 "" H 2050 1000 50  0000 C CNN
	1    2050 1000
	0    -1   -1   0   
$EndComp
Wire Wire Line
	1200 1400 2850 1400
Wire Wire Line
	1100 1400 1100 1550
Wire Wire Line
	1100 1550 1400 1550
Wire Wire Line
	1400 1550 1400 1150
Wire Wire Line
	1400 1150 2000 1150
Wire Wire Line
	1000 1400 1000 1600
Wire Wire Line
	1000 1600 1450 1600
Wire Wire Line
	1450 1600 1450 1200
Wire Wire Line
	1450 1200 2100 1200
Wire Wire Line
	1500 1000 1500 1600
Connection ~ 1500 1400
Wire Wire Line
	1900 1400 1900 1500
Wire Wire Line
	2000 1150 2000 1500
Wire Wire Line
	2100 1200 2100 1500
Wire Wire Line
	2200 1500 2200 1000
Wire Wire Line
	1900 1000 1500 1000
$Comp
L R R?
U 1 1 5C251E6E
P 3050 2050
F 0 "R?" V 3130 2050 50  0000 C CNN
F 1 "47k" V 3050 2050 50  0000 C CNN
F 2 "" V 2980 2050 50  0000 C CNN
F 3 "" H 3050 2050 50  0000 C CNN
	1    3050 2050
	1    0    0    -1  
$EndComp
$Comp
L R R?
U 1 1 5C251F5A
P 3500 1400
F 0 "R?" V 3580 1400 50  0000 C CNN
F 1 "560" V 3500 1400 50  0000 C CNN
F 2 "" V 3430 1400 50  0000 C CNN
F 3 "" H 3500 1400 50  0000 C CNN
	1    3500 1400
	0    1    1    0   
$EndComp
Wire Wire Line
	1500 2350 1500 1900
Wire Wire Line
	900  2350 900  1400
Connection ~ 1500 2350
Wire Wire Line
	3050 1900 3050 1700
Connection ~ 1900 1400
Wire Wire Line
	900  2350 4150 2350
Wire Wire Line
	1900 2350 1900 2200
$Comp
L LED D?
U 1 1 5C252282
P 3950 1400
F 0 "D?" H 3950 1500 50  0000 C CNN
F 1 "LED" H 3950 1300 50  0000 C CNN
F 2 "" H 3950 1400 50  0000 C CNN
F 3 "" H 3950 1400 50  0000 C CNN
	1    3950 1400
	1    0    0    -1  
$EndComp
Wire Wire Line
	3250 1400 3350 1400
Wire Wire Line
	3650 1400 3750 1400
Wire Wire Line
	4150 2350 4150 1400
Connection ~ 1900 2350
Wire Wire Line
	3050 2200 3050 2300
Wire Wire Line
	3050 2300 2000 2300
Wire Wire Line
	2000 2300 2000 2200
$EndSCHEMATC
